…
    df=flights %>% 
      group_by(origin,day) %>% 
      filter(!is.na(origin),!is.na(day),!is.na(dep_delay)) %>% 
      count(dep_delay<60) 
    names(df)[3]="iff"
    newdf=df %>% pivot_wider(names_from = iff,values_from=n) 
    names(newdf)[3]="notontime"
    names(newdf)[4]="ontime"
    newdf=newdf %>% mutate(performance=(ontime)/(ontime+notontime))
    newdf

    ## # A tibble: 93 x 5
    ## # Groups:   origin, day [93]
    ##    origin   day notontime ontime performance
    ##    <chr>  <int>     <int>  <int>       <dbl>
    ##  1 EWR        1       404   3456       0.895
    ##  2 EWR        2       415   3323       0.889
    ##  3 EWR        3       280   3725       0.930
    ##  4 EWR        4       175   3768       0.956
    ##  5 EWR        5       238   3563       0.937
    ##  6 EWR        6       232   3638       0.940
    ##  7 EWR        7       423   3402       0.889
    ##  8 EWR        8       541   3187       0.855
    ##  9 EWR        9       410   3261       0.888
    ## 10 EWR       10       475   3326       0.875
    ## # … with 83 more rows

Construct a tidy data set to that give weather summaries for each
(airport, day). Use the total precipitation, minimum visibility, maximum
wind\_gust, and average wind\_speed.

    newweather=weather %>% group_by(origin,day) %>% 
      filter(!is.na(wind_gust))%>% 
      summarise(total_precipitation=sum(precip),minimum_visibility=min(visib),maximum_wind_gust=max(wind_gust),average_wind_speed=mean(wind_speed))
    newweather

    ## # A tibble: 93 x 6
    ## # Groups:   origin [3]
    ##    origin   day total_precipita… minimum_visibil… maximum_wind_gu…
    ##    <chr>  <int>            <dbl>            <dbl>            <dbl>
    ##  1 EWR        1             0.29              1.5             33.4
    ##  2 EWR        2             0                 6               33.4
    ##  3 EWR        3             0                10               33.4
    ##  4 EWR        4             0                10               32.2
    ##  5 EWR        5             0                10               31.1
    ##  6 EWR        6             0.07              7               47.2
    ##  7 EWR        7             1.32              2               40.3
    ##  8 EWR        8             0.32              1.5             33.4
    ##  9 EWR        9             0.03              9               36.8
    ## 10 EWR       10             0.28              2.5             43.7
    ## # … with 83 more rows, and 1 more variable: average_wind_speed <dbl>
…
